{
    "spider": "http://刚刚.live/18.jar",
    "sites": [
        {
            "key": "18",
            "name": "🔞🈲未成年人禁止访问！",
            "type": 0,
            "api": ""
        },
        {
            "key": "91md",
            "name": "1️⃣6️⃣（综合）",
            "type": 1,
            "api": "https://91md.me/api.php/provide/vod/from/mdm3u8/",
            "searchable": 1,
            "quickSearch": 1,
            "filterable": 0
        },
        {
            "key": "hy",
            "name": "1️⃣（高清无码-速度慢）",
            "type": 0,
            "api": "http://wmcj8.com/inc/sapi.php",
            "searchable": 1,
            "quickSearch": 1,
            "filterable": 0
        },
        {
            "key": "sy",
            "name": "2️⃣（综合）",
            "type": 1,
            "api": "https://shayuapi.com/api.php/provide/vod/at/json/",
            "searchable": 1,
            "quickSearch": 1,
            "filterable": 0
        },
        {
            "key": "bbt",
            "name": "3️⃣（伦理剧情）",
            "type": 0,
            "api": "http://bttcj.com/inc/sapi.php",
            "searchable": 1,
            "quickSearch": 1,
            "filterable": 0
        },
        {
            "key": "lebo",
            "name": "4️⃣（综合）",
            "type": 1,
            "api": "https://lbapi9.com/api.php/provide/vod/at/json/",
            "searchable": 1,
            "quickSearch": 1,
            "filterable": 0
        },
        {
            "key": "kk",
            "name": "5️⃣（伦理剧情）",
            "type": 0,
            "api": "https://kkzy.me/api.php/provide/vod/at/xml/",
            "searchable": 1,
            "quickSearch": 1,
            "filterable": 0
        },
        {
            "key": "JL",
            "name": "6️⃣（综合）",
            "type": 0,
            "api": "https://jializyzapi.com/api.php/provide/vod/at/xml/",
            "searchable": 1,
            "quickSearch": 1,
            "filterable": 0
        },
        {
            "key": "TT",
            "name": "7️⃣（综合）",
            "type": 0,
            "api": "https://apittzy.com/api.php/provide/vod/at/xml/",
            "searchable": 1,
            "quickSearch": 1,
            "filterable": 0
        },
        {
            "key": "hj",
            "name": "8️⃣（综合）",
            "type": 0,
            "api": "https://cj.apihjzy.com/inc/api.php",
            "searchable": 1,
            "quickSearch": 1,
            "filterable": 0
        },
        {
            "key": "sm",
            "name": "9️⃣（综合）",
            "type": 1,
            "api": "https://api.maozyapi.com/inc/apijson_vod.php",
            "searchable": 1,
            "quickSearch": 1,
            "filterable": 0
        },
        {
            "key": "xiuse",
            "name": "🔟",
            "type": 1,
            "api": "https://api.xiuseapi.com/api.php/provide/vod/",
            "searchable": 1,
            "quickSearch": 1,
            "filterable": 0
        },
        {
            "key": "sw",
            "name": "1️⃣1️⃣（综合）",
            "type": 0,
            "api": "https://siwazyw.cc/api.php/provide/vod/at/xml/",
            "searchable": 1,
            "quickSearch": 1,
            "filterable": 0
        },
        {
            "key": "kd",
            "name": "1️⃣2️⃣（综合）",
            "type": 0,
            "api": "https://api.kdapi.info/api.php/provide/vod/at/xml/",
            "searchable": 1,
            "quickSearch": 1,
            "filterable": 0
        },
        {
            "key": "LY",
            "name": "1️⃣3️⃣（综合）",
            "type": 0,
            "api": "https://api.apilyzy.com/api.php/provide/vod/at/xml/",
            "searchable": 1,
            "quickSearch": 1,
            "filterable": 0
        },
        {
            "key": "LY",
            "name": "1️⃣4️⃣（猎奇）",
            "type": 0,
            "api": "http://cjmygzy.com/inc/sapi.php?ac=videolist",
            "searchable": 1,
            "quickSearch": 1,
            "filterable": 0
        },
        {
            "key": "jgc",
            "name": "1️⃣5️⃣（优质）",
            "type": 0,
            "api": "https://jgczyapi.com/home/cjapi/kld2/mc/vod/xml",
            "searchable": 1,
            "quickSearch": 1,
            "filterable": 0
        },
        {
            "key": "yk",
            "name": "1️⃣7️⃣",
            "type": 1,
            "api": "https://api.ykapi.net/api.php/provide/vod/from/ykm3u8/",
            "searchable": 1,
            "quickSearch": 1,
            "filterable": 0
        },
        {
            "key": "diand",
            "name": "1️⃣8️⃣",
            "type": 0,
            "api": "https://xx55zyapi.com/home/cjapi/ascf/mc/vod/xml",
            "searchable": 1,
            "quickSearch": 1,
            "filterable": 0
        },
        {
            "key": "dds",
            "name": "1️⃣9️⃣",
            "type": 0,
            "api": "https://sdszyapi.com/home/cjapi/asbb/sea/vod/xml",
            "searchable": 1,
            "quickSearch": 1,
            "filterable": 0
        },
        {
            "key": "ggmm",
            "name": "2️⃣0️⃣",
            "type": 0,
            "api": "http://www.ggmmzy.com:9999/inc/xml",
            "searchable": 1,
            "quickSearch": 1,
            "filterable": 0
        },
        {
            "key": "ckzy",
            "name": "2️⃣1️⃣",
            "type": 1,
            "api": "http://www.feifei67.com/api.php/provide/vod/",
            "searchable": 1,
            "quickSearch": 1,
            "filterable": 0
        },
        {
            "key": "yinwo",
            "name": "2️⃣2️⃣",
            "type": 0,
            "api": "https://api.yinwoapi.com/api.php/provide/vod/at/xml/",
            "searchable": 1,
            "quickSearch": 1,
            "filterable": 0
        },
        {
            "key": "putao",
            "name": "2️⃣3️⃣",
            "type": 0,
            "api": "https://caiji.putaozy.net/inc/api.php",
            "searchable": 1,
            "quickSearch": 1,
            "filterable": 0
        },
        {
            "key": "sewo",
            "name": "2️⃣4️⃣",
            "type": 0,
            "api": "https://sewozyapi.com/api.php/provide/vod/at/xml/",
            "searchable": 1,
            "quickSearch": 1,
            "filterable": 0
        },
        {
            "key": "msn",
            "name": "2️⃣5️⃣",
            "type": 0,
            "api": "https://www.msnii.com/api/xml.php",
            "searchable": 1,
            "quickSearch": 1,
            "filterable": 1
        },
        {
            "key": "gdl",
            "name": "2️⃣6️⃣",
            "type": 0,
            "api": "https://www.gdlsp.com/api/xml.php",
            "searchable": 1,
            "quickSearch": 1,
            "filterable": 1
        },
        {
            "key": "kxgav",
            "name": "2️⃣7️⃣",
            "type": 0,
            "api": "https://www.kxgav.com/api/xml.php",
            "searchable": 1,
            "quickSearch": 1,
            "filterable": 1
        },
        {
            "key": "afasu",
            "name": "2️⃣8️⃣",
            "type": 0,
            "api": "https://www.afasu.com/api/xml.php",
            "searchable": 1,
            "quickSearch": 1,
            "filterable": 1
        },
        {
            "key": "KpgxdyE",
            "name": "2️⃣9️⃣",
            "type": 0,
            "api": "https://www.pgxdy.com/api/xml.php",
            "searchable": 1,
            "quickSearch": 1,
            "filterable": 1
        },
        {
            "key": "xrb",
            "name": "3️⃣0️⃣",
            "type": 0,
            "api": "https://www.xrbsp.com/api/xml.php",
            "searchable": 1,
            "quickSearch": 1,
            "filterable": 1
        },
        {
            "key": "huakui",
            "name": "3️⃣1️⃣",
            "type": 1,
            "api": "https://caiji.huakuiapi.com/inc/apijson_vod.php",
            "searchable": 1,
            "quickSearch": 1,
            "filterable": 1
        },
        {
            "key": "sbzy",
            "name": "3️⃣2️⃣",
            "type": 0,
            "api": "http://www.shabizy.com:777/inc/sea",
            "searchable": 1,
            "quickSearch": 1,
            "filterable": 1
        },
        {
            "key": "xjiejie",
            "name": "3️⃣3️⃣",
            "type": 0,
            "api": "https://xjjzyapi.com/home/cjapi/askl/mc10/vod/xml",
            "searchable": 1,
            "quickSearch": 1,
            "filterable": 1
        },
        {
            "key": "tianal",
            "name": "3️⃣4️⃣",
            "type": 0,
            "api": "http://www.987caiji.com/api/max.php",
            "searchable": 1,
            "quickSearch": 1,
            "filterable": 1
        },
        {
            "key": "99zy",
            "name": "3️⃣5️⃣",
            "type": 1,
            "api": "http://99zy.pw/api.php/provide/vod/",
            "searchable": 1,
            "quickSearch": 1,
            "filterable": 1
        },
        {
            "key": "kudou",
            "name": "3️⃣6️⃣",
            "type": 1,
            "api": "https://kudouzy.com/api.php/provide/vod/",
            "searchable": 1,
            "quickSearch": 1,
            "filterable": 1
        },
        {
            "key": "kulunli",
            "name": "3️⃣7️⃣",
            "type": 1,
            "api": "https://api.kudian70.com/api.php/provide/vod/",
            "searchable": 1,
            "quickSearch": 1,
            "filterable": 1
        },
        {
            "key": "aiboz",
            "name": "3️⃣8️⃣",
            "type": 1,
            "api": "https://cj.apiabzy.com/api.php/provide/vod/",
            "searchable": 1,
            "quickSearch": 1,
            "filterable": 1
        },
        {
            "key": "a688zy",
            "name": "3️⃣9️⃣",
            "type": 1,
            "api": "http://m.7777688.com/inc/apijson.php",
            "searchable": 1,
            "quickSearch": 1,
            "filterable": 1
        },
        {
            "key": "sesez",
            "name": "4️⃣0️⃣",
            "type": 0,
            "api": "http://secj8.com/inc/sapi.php?ac=videolist",
            "searchable": 1,
            "quickSearch": 1,
            "filterable": 1
        },
        {
            "key": "99zyyy",
            "name": "4️⃣1️⃣",
            "type": 0,
            "api": "http://99zywcj.com/inc/sapi.php?ac=videolist",
            "searchable": 1,
            "quickSearch": 1,
            "filterable": 1
        },
        {
            "key": "fhzy",
            "name": "4️⃣2️⃣",
            "type": 1,
            "api": "http://fhapi9.com/api.php/provide/vod/",
            "searchable": 1,
            "quickSearch": 1,
            "filterable": 1
        },
        {
            "key": "langc",
            "name": "4️⃣3️⃣",
            "type": 1,
            "api": "http://langchaozy11.com/api.php/provide/vod/",
            "searchable": 1,
            "quickSearch": 1,
            "filterable": 1
        },
        {
            "key": "f2d",
            "name": "4️⃣4️⃣",
            "type": 0,
            "api": "http://f2dcj6.com/sapi?ac=videolist",
            "searchable": 1,
            "quickSearch": 1,
            "filterable": 1
        },
        {
            "key": "javmyg",
            "name": "4️⃣5️⃣",
            "type": 0,
            "api": "http://mygzycj.com/api.php?ac=videolist",
            "searchable": 1,
            "quickSearch": 1,
            "filterable": 1
        },
        {
            "key": "4000",
            "name": "4️⃣6️⃣",
            "type": 1,
            "api": "http://www.4000zy.com/api.php/provide/vod/",
            "searchable": 1,
            "quickSearch": 1,
            "filterable": 1
        },
        {
            "key": "smt",
            "name": "4️⃣7️⃣",
            "type": 1,
            "api": "http://51smt4.xyz/api.php/provide/vod/",
            "searchable": 1,
            "quickSearch": 1,
            "filterable": 1
        },
        {
            "key": "523",
            "name": "4️⃣8️⃣",
            "type": 1,
            "api": "https://caiji.523zyw.com/inc/apijson_vod.php",
            "searchable": 1,
            "quickSearch": 1,
            "filterable": 1
        },
        {
            "key": "mgzy",
            "name": "4️⃣9️⃣",
            "type": 1,
            "api": "https://mgzyz1.com/api.php/provide/vod/",
            "searchable": 1,
            "quickSearch": 1,
            "filterable": 1
        },
        {
            "key": "010",
            "name": "5️⃣0️⃣",
            "type": 0,
            "api": "http://www.010aizy.com/API/macs.php",
            "searchable": 1,
            "quickSearch": 1,
            "filterable": 1
        }
    ],
    "lives": [
        {
            "group": "redirect",
            "channels": [
                {
                    "name": "redirect",
                    "urls": [
                        "proxy://do=live&type=txt&ext=aHR0cHM6Ly92aXAuZnVxaXpoaXNoaS5jb20vdHZib3gvemIudHh0"
                    ]
                }
            ]
        }
    ],
    "flags": [
        "youku",
        "qq"
    ],
    "parses": [
        {
            "name": "自动解析",
            "type": 3,
            "url": "Demo"
        },
        {
            "name": "自动线路",
            "type": 2,
            "url": "Parallel"
        }
    ],
    "ijk": [
        {
            "group": "软解码",
            "options": [
                {
                    "category": 4,
                    "name": "opensles",
                    "value": "0"
                },
                {
                    "category": 4,
                    "name": "overlay-format",
                    "value": "842225234"
                },
                {
                    "category": 4,
                    "name": "framedrop",
                    "value": "1"
                },
                {
                    "category": 4,
                    "name": "soundtouch",
                    "value": "1"
                },
                {
                    "category": 4,
                    "name": "start-on-prepared",
                    "value": "1"
                },
                {
                    "category": 1,
                    "name": "http-detect-range-support",
                    "value": "0"
                },
                {
                    "category": 1,
                    "name": "fflags",
                    "value": "fastseek"
                },
                {
                    "category": 2,
                    "name": "skip_loop_filter",
                    "value": "48"
                },
                {
                    "category": 4,
                    "name": "reconnect",
                    "value": "1"
                },
                {
                    "category": 4,
                    "name": "max-buffer-size",
                    "value": "5242880"
                },
                {
                    "category": 4,
                    "name": "enable-accurate-seek",
                    "value": "0"
                },
                {
                    "category": 4,
                    "name": "mediacodec",
                    "value": "0"
                },
                {
                    "category": 4,
                    "name": "mediacodec-auto-rotate",
                    "value": "0"
                },
                {
                    "category": 4,
                    "name": "mediacodec-handle-resolution-change",
                    "value": "0"
                },
                {
                    "category": 4,
                    "name": "mediacodec-hevc",
                    "value": "0"
                },
                {
                    "category": 1,
                    "name": "dns_cache_timeout",
                    "value": "600000000"
                }
            ]
        },
        {
            "group": "硬解码",
            "options": [
                {
                    "category": 4,
                    "name": "opensles",
                    "value": "0"
                },
                {
                    "category": 4,
                    "name": "overlay-format",
                    "value": "842225234"
                },
                {
                    "category": 4,
                    "name": "framedrop",
                    "value": "1"
                },
                {
                    "category": 4,
                    "name": "soundtouch",
                    "value": "1"
                },
                {
                    "category": 4,
                    "name": "start-on-prepared",
                    "value": "1"
                },
                {
                    "category": 1,
                    "name": "http-detect-range-support",
                    "value": "0"
                },
                {
                    "category": 1,
                    "name": "fflags",
                    "value": "fastseek"
                },
                {
                    "category": 2,
                    "name": "skip_loop_filter",
                    "value": "48"
                },
                {
                    "category": 4,
                    "name": "reconnect",
                    "value": "1"
                },
                {
                    "category": 4,
                    "name": "max-buffer-size",
                    "value": "5242880"
                },
                {
                    "category": 4,
                    "name": "enable-accurate-seek",
                    "value": "0"
                },
                {
                    "category": 4,
                    "name": "mediacodec",
                    "value": "1"
                },
                {
                    "category": 4,
                    "name": "mediacodec-auto-rotate",
                    "value": "1"
                },
                {
                    "category": 4,
                    "name": "mediacodec-handle-resolution-change",
                    "value": "1"
                },
                {
                    "category": 4,
                    "name": "mediacodec-hevc",
                    "value": "1"
                },
                {
                    "category": 1,
                    "name": "dns_cache_timeout",
                    "value": "600000000"
                }
            ]
        }
    ],
    "ads": [
        "mimg.0c1q0l.cn",
        "www.googletagmanager.com",
        "www.google-analytics.com",
        "mc.usihnbcq.cn",
        "mg.g1mm3d.cn",
        "mscs.svaeuzh.cn",
        "cnzz.hhttm.top",
        "tp.vinuxhome.com",
        "cnzz.mmstat.com",
        "www.baihuillq.com",
        "s23.cnzz.com",
        "z3.cnzz.com",
        "c.cnzz.com",
        "stj.v1vo.top",
        "z12.cnzz.com",
        "img.mosflower.cn",
        "tips.gamevvip.com",
        "ehwe.yhdtns.com",
        "xdn.cqqc3.com",
        "www.jixunkyy.cn",
        "sp.chemacid.cn",
        "hm.baidu.com",
        "s9.cnzz.com",
        "z6.cnzz.com",
        "um.cavuc.com",
        "mav.mavuz.com",
        "wofwk.aoidf3.com",
        "z5.cnzz.com",
        "xc.hubeijieshikj.cn",
        "tj.tianwenhu.com",
        "xg.gars57.cn",
        "k.jinxiuzhilv.com",
        "cdn.bootcss.com",
        "ppl.xunzhuo123.com",
        "xomk.jiangjunmh.top",
        "img.xunzhuo123.com",
        "z1.cnzz.com",
        "v1.cnzz.com",
        "s13.cnzz.com",
        "xg.huataisangao.cn",
        "z7.cnzz.com",
        "xg.huataisangao.cn",
        "z2.cnzz.com",
        "s96.cnzz.com",
        "q11.cnzz.com",
        "thy.dacedsfa.cn",
        "xg.whsbpw.cn",
        "s19.cnzz.com",
        "z8.cnzz.com",
        "s4.cnzz.com",
        "f5w.as12df.top",
        "ae01.alicdn.com",
        "videocloud.cn-hangzhou.log.aliyuncs.com",
        "www.92424.cn",
        "k.wudejia.com",
        "vivovip.mmszxc.top",
        "qiu.xixiqiu.com",
        "cdnjs.hnfenxun.com",
        "cms.qdwght.com"
    ]
}